<?xml version="1.0" standalone="no"?>
<!DOCTYPE svg PUBLIC "-//W3C//DTD SVG 1.1//EN" "http://www.w3.org/Graphics/SVG/1.1/DTD/svg11.dtd">
<svg xmlns="http://www.w3.org/2000/svg"><defs><font id="flaticon" horiz-adv-x="512"><font-face units-per-em="512" ascent="448" descent="-64" x-height="240" cap-height="480"/><missing-glyph horiz-adv-x="512"/><glyph unicode="&#xE000;" glyph-name="facebook4" horiz-adv-x="284" d="M284.44444444444 358.99164444444H203.19004444444c-9.6028444444444 0 -20.332088888889 -12.635022222222 -20.332088888889 -29.536711111111v-58.6752H284.44444444444v-83.626666666667H182.85795555556V-64H86.954666666667V187.14168888889H0v83.626666666667h86.954666666667V320 c0 70.582044444444 48.987022222222 128 116.23537777778 128H284.44444444444V358.99164444444z"/><glyph unicode="&#xE001;" glyph-name="signal1" horiz-adv-x="512" d="M0 448v-79.791157894737c238.69978947368 0 432.20210526316 -193.51578947368 432.20210526316 -432.20884210526H512C512 218.77221052632 282.76547368421 448 0 448zM0 288.41768421053v-79.791157894737 c150.56168421053 0 272.61978947368 -122.05810526316 272.61978947368 -272.62652631579h79.791157894737C352.41094736842 130.63410526316 194.63410526316 288.41768421053 0 288.41768421053zM76.456421052632 88.933052631579 C34.236631578947 88.933052631579 0 54.689684210526 0 12.469894736842C0 -29.770105263158 34.236631578947 -64 76.456421052632 -64c42.24 0 76.483368421053 34.229894736842 76.483368421053 76.469894736842 C152.93305263158 54.689684210526 118.69642105263 88.933052631579 76.456421052632 88.933052631579z"/><glyph unicode="&#xE002;" glyph-name="social19" horiz-adv-x="512" d="M512.032 350.784c-18.848 -8.352 -39.072 -14.016 -60.32 -16.544c21.696 12.992 38.304 33.6 46.176 58.08 c-20.32 -12.032 -42.816 -20.768 -66.752 -25.504C412 387.264 384.704 400 354.496 400c-58.016 0 -105.056 -47.04 -105.056 -105.024 c0 -8.224 0.928 -16.256 2.72 -23.936C164.864 275.424 87.456 317.248 35.648 380.8C26.592 365.312 21.44 347.264 21.44 328 c0 -36.448 18.56 -68.608 46.72 -87.424C50.944 241.152 34.752 245.888 20.576 253.76v-1.312c0 -50.88 36.224 -93.344 84.256 -103.008 C96.032 147.072 86.752 145.76 77.152 145.76c-6.784 0 -13.344 0.672 -19.776 1.92c13.376 -41.728 52.16 -72.096 98.112 -72.96 c-35.936 -28.16 -81.248 -44.928 -130.464 -44.928c-8.48 0 -16.832 0.512 -25.056 1.44C46.464 1.408 101.664 -16 160.992 -16 c193.216 0 298.88 160.064 298.88 298.88L459.52 296.48C480.128 311.232 497.984 329.728 512.032 350.784z"/></font></defs></svg>
