<?xml version="1.0" standalone="no"?>
<!DOCTYPE svg PUBLIC "-//W3C//DTD SVG 1.1//EN" "http://www.w3.org/Graphics/SVG/1.1/DTD/svg11.dtd" >
<svg xmlns="http://www.w3.org/2000/svg">
<metadata>Generated by IcoMoon</metadata>
<defs>
<font id="bottegafont" horiz-adv-x="1024">
<font-face units-per-em="1024" ascent="960" descent="-64" />
<missing-glyph horiz-adv-x="1024" />
<glyph unicode="&#x20;" d="" horiz-adv-x="512" />
<glyph unicode="&#xe600;" d="M742.997 657.664c-33.28 33.323-87.381 33.323-120.661 0l-110.336-110.336-110.336 110.336c-33.28 33.323-87.381 33.323-120.661 0-33.323-33.323-33.323-87.339 0-120.661l110.293-110.336-110.293-110.336c-33.323-33.323-33.323-87.339 0-120.661 16.64-16.683 38.485-25.003 60.331-25.003s43.691 8.32 60.331 25.003l110.336 110.336 110.336-110.336c16.64-16.683 38.485-25.003 60.331-25.003s43.691 8.32 60.331 25.003c33.323 33.323 33.323 87.339 0 120.661l-110.293 110.336 110.293 110.336c33.323 33.323 33.323 87.339 0 120.661z" />
<glyph unicode="&#xe601;" d="M724.139 671.958c-41.259 22.955-93.227 8.021-116.053-33.152l-158.421-285.099-90.667 90.667c-33.323 33.323-87.339 33.323-120.661 0s-33.323-87.339 0-120.661l170.667-170.667c16.128-16.171 37.888-25.045 60.331-25.045 3.925 0 7.893 0.256 11.819 0.853 26.496 3.712 49.749 19.627 62.763 43.051l213.333 384c22.912 41.216 8.064 93.141-33.109 116.053z" />
<glyph unicode="&#xe602;" d="M768 512h-170.667v170.667c0 47.104-38.229 85.333-85.333 85.333s-85.333-38.229-85.333-85.333l3.029-170.667h-173.696c-47.104 0-85.333-38.229-85.333-85.333s38.229-85.333 85.333-85.333l173.696 3.029-3.029-173.696c0-47.104 38.229-85.333 85.333-85.333s85.333 38.229 85.333 85.333v173.696l170.667-3.029c47.104 0 85.333 38.229 85.333 85.333s-38.229 85.333-85.333 85.333z" />
<glyph unicode="&#xe603;" d="M768 469.334h-512c-47.104 0-85.333-38.229-85.333-85.333s38.229-85.333 85.333-85.333h512c47.104 0 85.333 38.229 85.333 85.333s-38.229 85.333-85.333 85.333z" />
<glyph unicode="&#xe604;" d="M366.336 700.331c-33.323-33.323-33.323-87.339 0-120.661l152.96-153.003-152.96-153.003c-33.323-33.323-33.323-87.339 0-120.661 16.64-16.683 38.485-25.003 60.331-25.003s43.691 8.32 60.331 25.003l273.707 273.664-273.707 273.664c-33.28 33.323-87.381 33.323-120.661 0z" />
<glyph unicode="&#xe605;" d="M614.997 700.331c-33.28 33.323-87.381 33.323-120.661 0l-273.707-273.664 273.707-273.664c16.64-16.683 38.485-25.003 60.331-25.003s43.691 8.32 60.331 25.003c33.323 33.323 33.323 87.339 0 120.661l-152.96 153.003 152.96 153.003c33.323 33.323 33.323 87.339 0 120.661z" />
<glyph unicode="&#xe606;" d="M810.667 213.334h-298.667c-47.061 0-85.333-38.272-85.333-85.333s38.272-85.333 85.333-85.333h298.667c47.061 0 85.333 38.272 85.333 85.333s-38.272 85.333-85.333 85.333zM810.667 512h-298.667c-47.061 0-85.333-38.272-85.333-85.333s38.272-85.333 85.333-85.333h298.667c47.061 0 85.333 38.272 85.333 85.333s-38.272 85.333-85.333 85.333zM810.667 810.667h-298.667c-47.061 0-85.333-38.272-85.333-85.333s38.272-85.333 85.333-85.333h298.667c47.061 0 85.333 38.272 85.333 85.333s-38.272 85.333-85.333 85.333zM320 128c0-58.91-47.756-106.667-106.667-106.667s-106.667 47.756-106.667 106.667c0 58.91 47.756 106.667 106.667 106.667 58.91 0 106.667-47.756 106.667-106.667zM320 426.667c0-58.91-47.756-106.667-106.667-106.667s-106.667 47.756-106.667 106.667c0 58.91 47.756 106.667 106.667 106.667 58.91 0 106.667-47.756 106.667-106.667zM320 725.334c0-58.91-47.756-106.667-106.667-106.667s-106.667 47.756-106.667 106.667c0 58.91 47.756 106.667 106.667 106.667 58.91 0 106.667-47.756 106.667-106.667z" />
<glyph unicode="&#xe607;" d="M341.333 810.667h-85.333c-35.2 0-67.2-14.379-90.411-37.589-23.211-23.211-37.589-55.211-37.589-90.411v-85.333c0-35.2 14.379-67.2 37.589-90.411 23.211-23.211 55.211-37.589 90.411-37.589h85.333c35.2 0 67.2 14.379 90.411 37.589s37.589 55.211 37.589 90.411v85.333c0 35.2-14.379 67.2-37.589 90.411-23.211 23.211-55.211 37.589-90.411 37.589zM768 810.667h-85.333c-35.2 0-67.2-14.379-90.411-37.589-23.211-23.211-37.589-55.211-37.589-90.411v-85.333c0-35.2 14.379-67.2 37.589-90.411s55.211-37.589 90.411-37.589h85.333c35.2 0 67.2 14.379 90.411 37.589 23.211 23.211 37.589 55.211 37.589 90.411v85.333c0 35.2-14.379 67.2-37.589 90.411-23.211 23.211-55.211 37.589-90.411 37.589zM341.333 384h-85.333c-35.2 0-67.2-14.379-90.411-37.589s-37.589-55.211-37.589-90.411v-85.333c0-35.2 14.379-67.2 37.589-90.411 23.211-23.211 55.211-37.589 90.411-37.589h85.333c35.2 0 67.2 14.379 90.411 37.589 23.211 23.211 37.589 55.211 37.589 90.411v85.333c0 35.2-14.379 67.2-37.589 90.411s-55.211 37.589-90.411 37.589zM768 384h-85.333c-35.2 0-67.2-14.379-90.411-37.589s-37.589-55.211-37.589-90.411v-85.333c0-35.2 14.379-67.2 37.589-90.411 23.211-23.211 55.211-37.589 90.411-37.589h85.333c35.2 0 67.2 14.379 90.411 37.589 23.211 23.211 37.589 55.211 37.589 90.411v85.333c0 35.2-14.379 67.2-37.589 90.411-23.211 23.211-55.211 37.589-90.411 37.589z" />
<glyph unicode="&#xe608;" d="M512 810.667c0 0-263.936-227.84-411.435-351.232-8.661-7.851-15.232-19.285-15.232-32.768 0-23.595 19.072-42.667 42.667-42.667h85.333v-298.667c0-23.595 19.072-42.667 42.667-42.667h128c23.595 0 42.667 19.115 42.667 42.667v170.667h170.667v-170.667c0-23.552 19.072-42.667 42.667-42.667h128c23.595 0 42.667 19.072 42.667 42.667v298.667h85.333c23.595 0 42.667 19.072 42.667 42.667 0 13.483-6.571 24.917-16.341 32.768-146.475 123.392-410.325 351.232-410.325 351.232z" />
<glyph unicode="&#xe609;" d="M753.365 712.363c-133.291 131.115-349.397 131.115-482.688 0-133.291-131.157-133.291-343.765 0-474.88l241.323-237.44 241.365 237.44c133.291 131.115 133.291 343.723 0 474.88zM512 362.71c-28.501 0-55.253 11.093-75.435 31.232-41.6 41.6-41.6 109.269 0 150.869 20.139 20.139 46.933 31.232 75.435 31.232s55.296-11.093 75.435-31.232c41.6-41.6 41.6-109.312 0-150.869-20.139-20.139-46.933-31.232-75.435-31.232z" />
<glyph unicode="&#xe60a;" d="M779.819 668.971c-18.347 18.347-48.043 18.347-66.389 0l-73.429-73.472-13.141 13.141c-49.835 49.835-137.216 49.835-187.051 0l-178.005-178.005c-24.917-24.917-38.656-58.155-38.656-93.525s13.739-68.608 38.656-93.525l13.141-13.141-73.472-73.472c-18.347-18.347-18.347-48.043 0-66.389 9.173-9.173 21.163-13.739 33.195-13.739s24.021 4.565 33.195 13.739l73.472 73.472 13.141-13.141c24.917-24.917 58.112-38.656 93.525-38.656s68.608 13.739 93.525 38.656l178.005 178.005c24.917 24.917 38.656 58.112 38.656 93.525s-13.739 68.608-38.656 93.525l-13.141 13.141 73.472 73.472c18.304 18.347 18.304 48.043-0.043 66.389zM653.141 395.307l-178.005-178.005c-7.168-7.168-17.152-10.795-27.136-10.795s-19.968 3.584-27.136 10.795l-13.141 13.141 30.805 30.805c18.347 18.347 18.347 48.043 0 66.389-9.173 9.173-21.163 13.739-33.195 13.739s-24.021-4.565-33.195-13.739l-30.805-30.805-13.141 13.141c-7.168 7.168-11.136 16.853-11.136 27.136s3.968 19.968 11.136 27.136l178.005 178.005c7.168 7.168 16.811 11.136 27.136 11.136s19.968-3.968 27.136-11.136l13.141-13.141-30.805-30.805c-18.347-18.347-18.347-48.043 0-66.389 9.173-9.173 21.163-13.739 33.195-13.739s24.021 4.565 33.195 13.739l30.805 30.805 13.141-13.141c7.168-7.168 11.136-16.853 11.136-27.136s-3.968-19.968-11.136-27.136z" />
<glyph unicode="&#xe60b;" d="M399.445 547.926c0 0-134.827-14.933-224.768-24.917-8.107-0.981-15.275-6.4-17.963-14.635s0-16.811 5.973-22.229c66.816-60.971 167.211-152.277 167.211-152.277-0.085 0-27.563-132.821-45.824-221.44-1.536-8.021 1.365-16.512 8.363-21.589 6.955-5.077 15.915-5.163 22.955-1.195 78.677 44.715 196.523 111.957 196.523 111.957s117.888-67.243 196.437-112c7.168-3.925 16.128-3.84 23.083 1.237 6.997 5.077 9.899 13.568 8.32 21.547-18.261 88.661-45.696 221.483-45.696 221.483s100.395 91.307 167.211 152.149c5.973 5.589 8.619 14.165 5.973 22.357s-9.813 13.611-17.92 14.549c-89.941 10.069-224.811 25.003-224.811 25.003s-55.893 123.648-93.141 206.080c-3.499 7.381-10.837 12.544-19.456 12.544s-16-5.205-19.328-12.544c-37.291-82.432-93.141-206.080-93.141-206.080z" />
<glyph unicode="&#xe60c;" d="M512 496c0 103.083-83.584 186.667-186.667 186.667s-186.667-83.584-186.667-186.667c0-48.085 6.784-118.784 74.667-186.667s298.667-224 298.667-224 230.784 156.117 298.667 224 74.667 138.581 74.667 186.667c0 103.083-83.584 186.667-186.667 186.667s-186.667-83.584-186.667-186.667z" />
<glyph unicode="&#xe60d;" d="M783.531 655.574c-66.603 66.517-174.933 66.517-241.408 0l-193.451-193.493c-20.181-20.181-31.275-46.933-31.275-75.52 0-28.501 11.136-55.253 31.232-75.435 20.779-20.736 48.128-31.147 75.477-31.147 27.307 0 54.571 10.325 75.392 31.147l90.539 90.496c16.683 16.853 25.003 38.571 25.003 60.331 0 21.845-8.32 43.648-25.003 60.331l-150.869-150.827c-8.235-8.32-21.803-8.32-30.208 0.085-5.419 5.419-6.229 11.733-6.229 15.019 0 3.328 0.811 9.685 6.229 15.104l193.493 193.579c33.195 33.237 87.381 33.237 120.747 0 33.237-33.237 33.237-87.424 0-120.661l-301.739-301.739c-33.237-33.237-87.424-33.237-120.661 0-33.28 33.237-33.28 87.424 0 120.661l4.053 4.096c-19.243 25.6-29.952 57.984-29.952 90.667l-34.432-34.432c-66.56-66.517-66.56-174.848 0-241.323 33.237-33.237 76.971-49.92 120.661-49.92s87.424 16.683 120.661 49.92l301.739 301.739c66.56 66.517 66.56 174.763 0 241.323z" />
<glyph unicode="&#xe60e;" d="M725.333 554.667c0 58.923-23.893 112.256-62.464 150.827-38.613 38.613-91.947 62.507-150.869 62.507s-112.256-23.893-150.869-62.507c-38.571-38.571-62.464-91.904-62.464-150.827s23.893-112.256 62.464-150.827c38.613-38.613 91.947-62.507 150.869-62.507s112.256 23.893 150.869 62.507c38.571 38.571 62.464 91.904 62.464 150.827zM256 128c0-42.667 96-85.333 256-85.333 150.101 0 256 42.667 256 85.333 0 85.333-100.437 170.667-256 170.667-160 0-256-85.333-256-170.667z" />
<glyph unicode="&#xe60f;" d="M931.029 408.32c-3.541 5.077-87.979 125.611-204.501 208-60.416 42.795-136.619 66.347-214.528 66.347-77.867 0-154.069-23.552-214.613-66.347-116.523-82.389-200.875-202.923-204.416-208-10.155-14.635-10.155-34.048 0-48.683 3.541-5.077 87.893-125.611 204.416-208 60.544-42.752 136.747-66.304 214.613-66.304 77.909 0 154.112 23.552 214.528 66.347 116.523 82.389 200.96 202.923 204.501 208 10.197 14.592 10.197 34.048 0 48.64zM512 234.667c-82.517 0-149.333 66.987-149.333 149.333 0 82.517 66.816 149.333 149.333 149.333 82.347 0 149.333-66.816 149.333-149.333 0-82.347-66.987-149.333-149.333-149.333zM597.333 384c0-47.019-38.315-85.333-85.333-85.333-47.147 0-85.333 38.315-85.333 85.333 0 47.147 38.187 85.333 85.333 85.333 47.019 0 85.333-38.187 85.333-85.333z" />
<glyph unicode="&#xe610;" d="M810.667 674.816v7.851c0 70.699-57.301 128-128 128s-128-57.301-128-128h-85.333c0 70.699-57.301 128-128 128s-128-57.301-128-128v-7.851c-49.536-17.707-85.333-64.597-85.333-120.149v-384c0-70.571 57.429-128 128-128h512c70.571 0 128 57.429 128 128v384c0 55.552-35.797 102.443-85.333 120.149zM640 682.667c0 23.552 19.072 42.667 42.667 42.667s42.667-19.115 42.667-42.667v-85.333c0-23.552-19.072-42.667-42.667-42.667s-42.667 19.115-42.667 42.667v85.333zM298.667 682.667c0 23.552 19.072 42.667 42.667 42.667s42.667-19.115 42.667-42.667v-85.333c0-23.552-19.072-42.667-42.667-42.667s-42.667 19.115-42.667 42.667v85.333zM810.667 170.667c0-23.509-19.115-42.667-42.667-42.667h-512c-23.552 0-42.667 19.157-42.667 42.667v256h597.333v-256z" />
<glyph unicode="&#xe611;" d="M768 640h-42.667v42.667c0 47.104-38.229 85.333-85.333 85.333h-298.667c-47.104 0-85.333-38.229-85.333-85.333v-42.667h-42.667c-23.552 0-42.667-19.115-42.667-42.667s19.115-42.667 42.667-42.667v-341.333c0-94.123 76.544-170.667 170.667-170.667h213.333c94.123 0 170.667 76.544 170.667 170.667v341.333c23.552 0 42.667 19.115 42.667 42.667s-19.115 42.667-42.667 42.667zM341.333 682.667h298.667v-42.667h-298.667v42.667zM682.667 213.334c0-47.104-38.229-85.333-85.333-85.333h-213.333c-47.104 0-85.333 38.229-85.333 85.333v341.333h384v-341.333zM362.667 490.667c-11.733 0-21.333-9.6-21.333-21.333v-256c0-11.733 9.6-21.333 21.333-21.333s21.333 9.6 21.333 21.333v256c0 11.733-9.6 21.333-21.333 21.333zM448 490.667c-11.733 0-21.333-9.6-21.333-21.333v-256c0-11.733 9.6-21.333 21.333-21.333s21.333 9.6 21.333 21.333v256c0 11.733-9.6 21.333-21.333 21.333zM533.333 490.667c-11.733 0-21.333-9.6-21.333-21.333v-256c0-11.733 9.6-21.333 21.333-21.333s21.333 9.6 21.333 21.333v256c0 11.733-9.6 21.333-21.333 21.333zM618.667 490.667c-11.733 0-21.333-9.6-21.333-21.333v-256c0-11.733 9.6-21.333 21.333-21.333s21.333 9.6 21.333 21.333v256c0 11.733-9.6 21.333-21.333 21.333z" />
<glyph unicode="&#xe612;" d="M885.589 710.614c-8.149 9.344-19.883 14.72-32.256 14.72h-589.611l-8.32 49.664c-3.413 20.565-21.205 35.669-42.069 35.669h-96c-23.595 0-42.667-19.072-42.667-42.667s19.072-42.667 42.667-42.667h59.861l79.36-476.331c0.341-1.92 1.323-3.499 1.92-5.291 0.683-2.261 1.237-4.395 2.304-6.443 1.365-2.816 3.2-5.205 5.12-7.637 1.323-1.664 2.517-3.328 4.053-4.779 2.475-2.304 5.333-3.925 8.235-5.547 1.621-0.896 3.029-2.091 4.779-2.773 4.949-2.005 10.155-3.2 15.659-3.2 0.043 0 469.376 0 469.376 0 23.595 0 42.667 19.072 42.667 42.667s-19.072 42.667-42.667 42.667h-433.195l-7.083 42.667h482.944c21.248 0 39.253 15.616 42.24 36.608l42.667 298.667c1.749 12.288-1.92 24.704-9.984 34.005zM804.139 640l-12.16-85.333h-151.979v85.333h164.139zM597.333 640v-85.333h-128v85.333h128zM597.333 512v-85.333h-128v85.333h128zM426.667 640v-85.333h-128c-2.261 0-4.309-0.64-6.315-1.28l-14.421 86.613h148.736zM299.264 512h127.403v-85.333h-113.195l-14.208 85.333zM640 426.667v85.333h145.835l-12.16-85.333h-133.675zM426.667 106.667c0-35.346-28.654-64-64-64s-64 28.654-64 64c0 35.346 28.654 64 64 64s64-28.654 64-64zM810.667 106.667c0-35.346-28.654-64-64-64s-64 28.654-64 64c0 35.346 28.654 64 64 64s64-28.654 64-64z" />
<glyph unicode="&#xe613;" d="M512 952.32c-271.462 0-491.52-220.058-491.52-491.52s220.058-491.52 491.52-491.52 491.52 220.058 491.52 491.52-220.058 491.52-491.52 491.52zM711.885 549.632c0.205-4.147 0.307-8.346 0.307-12.544 0-127.898-97.382-275.405-275.456-275.405-54.63 0-105.574 15.974-148.378 43.52 7.578-0.922 15.309-1.331 23.091-1.331 45.363 0 87.091 15.462 120.269 41.472-42.342 0.768-78.131 28.774-90.47 67.174 5.888-1.126 11.981-1.741 18.176-1.741 8.858 0 17.408 1.178 25.498 3.379-44.237 8.909-77.67 48.026-77.67 94.925 0 0.41 0 0.819 0.051 1.178 13.056-7.219 28.006-11.571 43.827-12.083-25.907 17.357-43.008 46.95-43.008 80.589 0 17.766 4.762 34.406 13.107 48.691 47.718-58.624 119.091-97.178 199.526-101.171-1.638 7.066-2.509 14.438-2.509 22.067 0 53.453 43.366 96.819 96.819 96.819 27.853 0 52.992-11.725 70.656-30.566 22.067 4.301 42.803 12.339 61.491 23.45-7.27-22.579-22.579-41.574-42.598-53.555 19.61 2.355 38.246 7.526 55.603 15.258-12.954-19.405-29.44-36.454-48.333-50.125z" />
<glyph unicode="&#xe614;" d="M512 952.32c-271.462 0-491.52-220.058-491.52-491.52s220.058-491.52 491.52-491.52 491.52 220.058 491.52 491.52-220.058 491.52-491.52 491.52zM628.378 612.659h-73.882c-8.704 0-18.432-11.52-18.432-26.829v-53.35h92.365v-76.083h-92.365v-228.403h-87.245v228.403h-79.053v76.032h79.053v44.749c0 64.205 44.544 116.378 105.677 116.378h73.882v-80.896z" />
<glyph unicode="&#xe615;" d="M465.766 599.808c-12.339 43.52-32.307 56.371-63.386 56.371-3.328 0-6.707-0.461-9.933-1.331-13.517-3.84-24.166-15.104-30.106-31.744-6.093-16.896-6.502-34.56-1.178-54.63 9.421-35.84 34.918-61.901 60.672-61.901 3.328 0 6.707 0.461 9.933 1.331 28.006 7.936 45.619 50.842 33.997 91.904zM512 952.32c-271.462 0-491.52-220.058-491.52-491.52s220.058-491.52 491.52-491.52c271.514 0 491.52 220.058 491.52 491.52s-220.006 491.52-491.52 491.52zM483.686 249.754c-30.925-15.002-64.154-16.589-77.005-16.589-2.458 0-3.84 0.051-4.045 0.051 0 0-0.973 0-2.509 0-20.070 0-119.962 4.608-119.962 95.59 0 89.395 108.749 96.358 142.080 96.358h0.922c-19.2 25.702-15.206 51.61-15.206 51.61-1.69-0.102-4.198-0.205-7.219-0.205-12.595 0-36.813 1.997-57.6 15.462-25.446 16.333-38.349 44.237-38.349 82.893 0 109.107 119.091 113.51 120.32 113.562h118.938v-2.611c0-13.312-23.859-15.872-40.192-18.125-5.53-0.768-16.589-1.894-19.763-3.482 30.157-16.077 35.021-41.421 35.021-79.104 0-42.854-16.794-65.536-34.611-81.51-11.008-9.83-19.712-17.664-19.712-28.006 0-10.138 11.878-20.582 25.702-32.717 22.579-19.866 53.555-47.053 53.555-92.723 0-47.206-20.326-80.998-60.365-100.454zM743.782 461.261h-77.619v-77.619h-49.152v77.619h-77.619v49.152h77.619v77.568h49.152v-77.619h77.619v-49.101zM421.018 401.869c-2.662 0-5.325-0.102-7.987-0.307-22.733-1.638-43.725-10.189-58.931-24.013-15.053-13.619-22.682-30.771-21.606-48.179 2.253-36.352 41.37-57.702 88.781-54.272 46.746 3.379 77.875 30.259 75.571 66.662-2.202 34.253-31.949 60.109-75.827 60.109z" />
<glyph unicode="&#xe616;" d="M512 952.32c-271.462 0-491.52-220.058-491.52-491.52s220.058-491.52 491.52-491.52 491.52 220.058 491.52 491.52-220.058 491.52-491.52 491.52zM545.587 344.269c-31.488 2.458-44.698 18.074-69.376 33.075-13.619-71.27-30.157-139.571-79.36-175.206-15.155 107.674 22.323 188.518 39.68 274.33-29.645 49.869 3.584 150.323 66.099 125.594 76.954-30.464-66.662-185.549 29.747-204.954 100.659-20.224 141.722 174.643 79.309 237.978-90.163 91.494-262.451 2.099-241.254-128.922 5.171-32.051 38.195-41.728 13.21-85.965-57.702 12.8-74.957 58.317-72.704 118.989 3.584 99.379 89.242 168.909 175.155 178.586 108.698 12.134 210.688-39.885 224.819-142.131 15.821-115.456-49.101-240.384-165.325-231.373z" />
<glyph unicode="&#xe617;" d="M983.040 752.998c-34.714-15.411-71.936-25.754-111.053-30.464 39.936 23.91 70.605 61.798 84.992 106.906-37.325-22.118-78.694-38.246-122.675-46.899-35.277 37.581-85.504 61.030-141.107 61.030-106.752 0-193.28-86.528-193.28-193.229 0-15.155 1.69-29.901 5.018-44.032-160.614 8.038-303.053 84.992-398.336 201.933-16.691-28.518-26.266-61.747-26.266-97.178 0-67.072 34.15-126.208 86.016-160.87-31.693 1.024-61.491 9.677-87.552 24.166 0-0.819 0-1.587 0-2.406 0-93.645 66.662-171.725 155.034-189.542-16.179-4.403-33.28-6.758-50.944-6.758-12.442 0-24.525 1.178-36.352 3.43 24.576-76.8 96-132.659 180.531-134.195-66.15-51.866-149.453-82.739-240.026-82.739-15.616 0-30.976 0.922-46.080 2.714 85.504-54.835 187.085-86.835 296.294-86.835 355.482 0 549.888 294.502 549.888 549.939 0 8.346-0.154 16.691-0.563 24.986 37.786 27.238 70.502 61.286 96.461 100.045z" />
<glyph unicode="&#xe618;" d="M768 761.395h-146.227c-17.306 0-36.608-22.733-36.608-53.197v-105.574h182.835v-150.528h-182.835v-452.096h-172.646v452.045h-156.518v150.579h156.518v88.576c0 127.027 88.166 230.4 209.203 230.4h146.278v-160.205z" />
<glyph unicode="&#xe619;" d="M101.888 686.643c0-76.442 25.549-131.686 75.878-164.096 41.216-26.573 89.088-30.566 113.971-30.566 6.042 0 10.854 0.256 14.234 0.461 0 0-7.885-51.354 30.208-102.195l-1.741 0.051c-65.997 0-281.293-13.824-281.293-190.822 0-180.070 197.734-189.184 237.363-189.184 3.123 0 4.915 0.051 4.915 0.051 0.461 0 3.277-0.102 8.090-0.102 25.446 0 91.238 3.174 152.371 32.922 79.258 38.451 119.501 105.421 119.501 198.912 0 90.368-61.235 144.128-105.984 183.45-27.29 23.962-50.893 44.646-50.893 64.768 0 20.48 17.203 35.891 39.014 55.398 35.226 31.539 68.506 76.442 68.506 161.331 0 74.65-9.677 124.723-69.325 156.467 6.246 3.174 28.211 5.478 39.117 7.014 32.307 4.403 79.565 9.421 79.565 35.789v5.069h-235.418c-2.355-0.051-238.080-8.806-238.080-224.717zM481.946 225.178c4.506-71.987-57.088-125.133-149.555-131.84-93.901-6.912-171.264 35.379-175.77 107.366-2.15 34.56 13.005 68.403 42.752 95.386 30.208 27.29 71.578 44.134 116.685 47.514 5.325 0.307 10.598 0.563 15.872 0.563 86.886 0 145.766-51.098 150.016-118.989zM420.454 735.949c23.091-81.254-11.776-166.195-67.328-181.862-6.4-1.792-13.005-2.714-19.661-2.714-50.944 0-101.376 51.507-120.064 122.47-10.445 39.885-9.626 74.701 2.355 108.237 11.776 32.922 32.922 55.245 59.546 62.72 6.4 1.843 13.056 2.714 19.712 2.714 61.44 0 100.966-25.498 125.44-111.565zM817.203 559.002v153.6h-97.28v-153.6h-153.6v-97.28h153.6v-153.6h97.28v153.6h153.6v97.28h-153.6z" />
<glyph unicode="&#xe61a;" d="M441.139 295.526c-26.88-140.954-59.699-276.122-156.979-346.726-30.003 213.094 44.083 373.094 78.49 542.976-58.675 98.816 7.066 297.574 130.867 248.576 152.32-60.262-131.891-367.258 58.88-405.606 199.219-40.038 280.525 345.6 157.030 470.989-178.483 181.146-519.578 4.198-477.594-255.027 10.189-63.386 75.674-82.637 26.163-170.086-114.227 25.293-148.326 115.405-143.923 235.52 7.066 196.557 176.64 334.182 346.726 353.229 215.142 24.115 417.024-78.95 444.826-281.293 31.386-228.352-97.024-475.699-327.117-457.882-62.31 4.762-88.474 35.635-137.37 65.331z" />
<glyph unicode="&#xe61b;" d="M554.667 768c-164.651 0-298.667-134.016-298.667-298.667 0-32.555 5.419-63.787 15.104-93.141l-53.76-53.845-43.008-44.587c-23.979-23.765-38.016-57.387-38.016-93.227 0-73.685 59.904-133.589 133.547-133.589 32.299 0 64.171 11.861 89.771 33.451l2.731 2.347 2.603 2.603 96.512 96.384c29.355-9.643 60.629-15.061 93.184-15.061 164.651 0 298.667 134.016 298.667 298.667s-134.016 298.667-298.667 298.667zM554.667 256c-117.632 0-213.333 95.701-213.333 213.333s95.701 213.333 213.333 213.333 213.333-95.701 213.333-213.333-95.701-213.333-213.333-213.333zM554.667 640c-94.080 0-170.667-76.544-170.667-170.667s76.587-170.667 170.667-170.667 170.667 76.544 170.667 170.667-76.587 170.667-170.667 170.667zM554.667 341.334c-70.656 0-128 57.344-128 128s57.344 128 128 128 128-57.344 128-128-57.344-128-128-128z" />
<glyph unicode="&#xe61c;" d="M810.667 213.334h-597.333c-47.061 0-85.333-38.272-85.333-85.333s38.272-85.333 85.333-85.333h597.333c47.061 0 85.333 38.272 85.333 85.333s-38.272 85.333-85.333 85.333zM810.667 512h-597.333c-47.061 0-85.333-38.272-85.333-85.333s38.272-85.333 85.333-85.333h597.333c47.061 0 85.333 38.272 85.333 85.333s-38.272 85.333-85.333 85.333zM810.667 810.667h-597.333c-47.061 0-85.333-38.272-85.333-85.333s38.272-85.333 85.333-85.333h597.333c47.061 0 85.333 38.272 85.333 85.333s-38.272 85.333-85.333 85.333z" />
</font></defs></svg>