<?xml version="1.0" standalone="no"?>
<!DOCTYPE svg PUBLIC "-//W3C//DTD SVG 1.1//EN" "http://www.w3.org/Graphics/SVG/1.1/DTD/svg11.dtd">
<svg xmlns="http://www.w3.org/2000/svg"><defs><font id="flaticon" horiz-adv-x="512"><font-face units-per-em="512" ascent="448" descent="-64" x-height="240" cap-height="480"/><missing-glyph horiz-adv-x="512"/><glyph unicode="&#xE000;" glyph-name="facebook5" horiz-adv-x="257" d="M55.763473442708 349.19492662655c0 3.1915501493442 0.44327085407558 10.084411930219 1.3298125622267 20.634258257218C58.046318341197 380.40119475347 62.035756027878 391.46080256266 69.194580321198 403.07449893944c7.0923336652093 11.569369291373 18.595212328471 21.964070819445 34.597290160599 31.161941041513 C119.72745768581 443.38998311761 142.75537855504 448 172.80914246137 448h84.664733128436v-92.266828275832H195.48244664733c-6.1393013289468 0 -11.857495346522 -2.305008441193 -17.021600796502 -6.8485346954677c-5.119778364573 -4.5435262542747 -7.7572399463227 -8.8654170815116 -7.7572399463227 -12.877018310896v-57.403575602788h86.748106142591 c-0.90870525085494 -11.236916150816 -1.906064672525 -22.163542703779 -3.0585688931215 -32.713389030778l-3.4353491190858 -27.881736721354c-1.3741396476343 -9.4195056491061 -2.7704428379724 -18.151941474395 -4.1445824856067 -26.197307475867H170.0830267088v-255.81160988702H55.763473442708V191.83377342972H0V278.60404311502h55.763473442708 V349.19492662655z"/><glyph unicode="&#xE001;" glyph-name="google10" horiz-adv-x="521" d="M27.659636363636 320.33163636364c0 -43.450181818182 14.510545454545 -74.816 43.124363636364 -93.248c23.418181818182 -15.092363636364 50.624 -17.344 64.750545454545 -17.344c3.4327272727273 0 6.1789090909091 0.128 8.1047272727273 0.256 c0 0 -4.4858181818182 -29.184 17.157818181818 -58.071272727273l-0.97745454545455 0.011636363636364C122.31563636364 151.92436363636 0 144.09309090909 0 43.537454545455c0 -102.31272727273 112.34327272727 -107.50836363636 134.87709090909 -107.50836363636 c1.7629090909091 0 2.7927272727273 0.034909090909091 2.7927272727273 0.034909090909091C137.92 -63.936 139.53163636364 -64 142.272 -64c14.464 0 51.851636363636 1.8152727272727 86.568727272727 18.693818181818 C273.87345454545 -23.441454545455 296.72727272727 14.580363636364 296.72727272727 67.712c0 51.345454545455 -34.804363636364 81.902545454545 -60.218181818182 104.23854545455c-15.511272727273 13.602909090909 -28.910545454545 25.355636363636 -28.910545454545 36.782545454545 c0 11.642181818182 9.7861818181818 20.392727272727 22.161454545455 31.476363636364c20.043636363636 17.925818181818 38.929454545455 43.438545454545 38.929454545455 91.665454545455c0 42.397090909091 -5.4981818181818 70.853818181818 -39.365818181818 88.907636363636 c3.5316363636364 1.8094545454545 16.011636363636 3.1243636363636 22.190545454545 3.9796363636364C269.87636363636 427.26981818182 296.72727272727 430.11490909091 296.72727272727 445.10254545455V448H162.944C161.6 447.96509090909 27.659636363636 443.00218181818 27.659636363636 320.33163636364zM243.61309090909 58.141090909091c2.5541818181818 -40.919272727273 -32.442181818182 -71.109818181818 -84.986181818182 -74.932363636364c-53.376 -3.8981818181818 -97.320727272727 20.130909090909 -99.874909090909 60.992 c-1.2392727272727 19.630545454545 7.3949090909091 38.888727272727 24.296727272727 54.202181818182c17.146181818182 15.528727272727 40.680727272727 25.099636363636 66.286545454545 26.990545454545c3.0254545454545 0.192 6.0218181818182 0.31418181818182 9.0123636363636 0.31418181818182 C207.73818181818 125.70763636364 241.19272727273 96.674909090909 243.61309090909 58.141090909091zM208.68072727273 348.32872727273c13.125818181818 -46.161454545455 -6.6909090909091 -94.423272727273 -38.272 -103.32509090909 c-3.6247272727273 -1.0181818181818 -7.3890909090909 -1.5418181818182 -11.182545454545 -1.5418181818182c-28.933818181818 0 -57.6 29.271272727273 -68.218181818182 69.585454545455c-5.9345454545455 22.656 -5.4574545454545 42.449454545455 1.3498181818182 61.486545454545 c6.6909090909091 18.728727272727 18.705454545455 31.377454545455 33.826909090909 35.630545454545c3.6363636363636 1.0298181818182 7.4065454545455 1.5534545454545 11.194181818182 1.5534545454545C172.31709090909 411.72363636364 194.77527272727 397.23636363636 208.68072727273 348.32872727273zM434.08872727273 247.79636363636 v87.272727272727h-55.272727272727v-87.272727272727h-87.272727272727v-55.272727272727h87.272727272727v-87.272727272727h55.272727272727v87.272727272727h87.272727272727v55.272727272727H434.08872727273z"/><glyph unicode="&#xE002;" glyph-name="social19" horiz-adv-x="512" d="M512.032 350.784c-18.848 -8.352 -39.072 -14.016 -60.32 -16.544c21.696 12.992 38.304 33.6 46.176 58.08 c-20.32 -12.032 -42.816 -20.768 -66.752 -25.504C412 387.264 384.704 400 354.496 400c-58.016 0 -105.056 -47.04 -105.056 -105.024 c0 -8.224 0.928 -16.256 2.72 -23.936C164.864 275.424 87.456 317.248 35.648 380.8C26.592 365.312 21.44 347.264 21.44 328 c0 -36.448 18.56 -68.608 46.72 -87.424C50.944 241.152 34.752 245.888 20.576 253.76v-1.312c0 -50.88 36.224 -93.344 84.256 -103.008 C96.032 147.072 86.752 145.76 77.152 145.76c-6.784 0 -13.344 0.672 -19.776 1.92c13.376 -41.728 52.16 -72.096 98.112 -72.96 c-35.936 -28.16 -81.248 -44.928 -130.464 -44.928c-8.48 0 -16.832 0.512 -25.056 1.44C46.464 1.408 101.664 -16 160.992 -16 c193.216 0 298.88 160.064 298.88 298.88L459.52 296.48C480.128 311.232 497.984 329.728 512.032 350.784z"/></font></defs></svg>
